<svg xmlns="http://www.w3.org/2000/svg" xmlns:xlink="http://www.w3.org/1999/xlink" width="112" height="112" viewBox="0 0 112 112">
    <defs>
        <circle id="b" cx="35" cy="35" r="35"/>
        <filter id="a" width="191.4%" height="191.4%" x="-45.7%" y="-42.9%" filterUnits="objectBoundingBox">
            <feMorphology in="SourceAlpha" operator="dilate" radius="1" result="shadowSpreadOuter1"/>
            <feOffset dy="2" in="shadowSpreadOuter1" result="shadowOffsetOuter1"/>
            <feMorphology in="SourceAlpha" radius="1" result="shadowInner"/>
            <feOffset dy="2" in="shadowInner" result="shadowInner"/>
            <feComposite in="shadowOffsetOuter1" in2="shadowInner" operator="out" result="shadowOffsetOuter1"/>
            <feGaussianBlur in="shadowOffsetOuter1" result="shadowBlurOuter1" stdDeviation="10"/>
            <feColorMatrix in="shadowBlurOuter1" values="0 0 0 0 0 0 0 0 0 0 0 0 0 0 0 0 0 0 0.215919384 0"/>
        </filter>
    </defs>
    <g fill="none" fill-rule="evenodd">
        <g transform="translate(21 19)">
            <use fill="#000" filter="url(#a)" xlink:href="#b"/>
            <use stroke="#FFF" stroke-width="2" xlink:href="#b"/>
        </g>
        <g fill="#2AB759" transform="translate(50 47)">
            <rect width="2" height="15" rx="1"/>
            <rect width="2" height="15" x="10" rx="1"/>
        </g>
    </g>
</svg>
